{
	"pyright.inlayHints.functionReturnTypes": false,
	"inlayHint.enable": false,
	"inlayHint.display": false,
	"coc.source.around.enable": false,
	"coc.source.buffer.enable": false,
	"coc.preferences.enableMessageDialog": false,
	"pyright.disableProgressNotifications": true,
	"coc.preferences.renameFillCurrent": false,
	"coc.preferences.useQuickfixForLocations": false,
	"list.source.diagnostics.includeCode": false,
	"suggest.maxCompleteItemCount": 15,
	"pyright.inlayHints.enable": false,
	"python.analysis.autoImportCompletions": false,
	"diagnostic.messageTarget": "echo",
	"diagnostic.enable": true,
	"diagnostic.enableMessage": "never",
	"pyright.completion.snippetSupport": false,
	"pyright.completion.importSupport": true,
	"pyright.disableDocumentation": false,
	"signature.enable": false,
	"signature.preferShownAbove": false,
	"suggest.floatConfig": {},
	"diagnostic.level": "error"
}
